^F:\Dev\Uni\Year4\High_Performance_GFX\TestVulkan\TestVulkan\TestVulkan.vcxproj
F:\Dev\Uni\Year4\High_Performance_GFX\TestVulkan\x64\Release\TestVulkan.ipdb
F:\Dev\Uni\Year4\High_Performance_GFX\TestVulkan\x64\Release\TestVulkan.iobj
^F:\Dev\Uni\Year4\High_Performance_GFX\TestVulkan\TestVulkan\TestVulkan.vcxproj
F:\Dev\Uni\Year4\High_Performance_GFX\TestVulkan\x64\Release\TestVulkan.ipdb
F:\Dev\Uni\Year4\High_Performance_GFX\TestVulkan\x64\Release\TestVulkan.iobj
^F:\Dev\Uni\Year4\High_Performance_GFX\TestVulkan\TestVulkan\TestVulkan.vcxproj
F:\Dev\Uni\Year4\High_Performance_GFX\TestVulkan\x64\Release\TestVulkan.ipdb
F:\Dev\Uni\Year4\High_Performance_GFX\TestVulkan\x64\Release\TestVulkan.iobj
^F:\Dev\Uni\Year4\High_Performance_GFX\TestVulkan\TestVulkan\TestVulkan.vcxproj
F:\Dev\Uni\Year4\High_Performance_GFX\TestVulkan\x64\Release\TestVulkan.ipdb
F:\Dev\Uni\Year4\High_Performance_GFX\TestVulkan\x64\Release\TestVulkan.iobj
^F:\Dev\Uni\Year4\High_Performance_GFX\TestVulkan\TestVulkan\TestVulkan.vcxproj
F:\Dev\Uni\Year4\High_Performance_GFX\TestVulkan\x64\Release\TestVulkan.ipdb
F:\Dev\Uni\Year4\High_Performance_GFX\TestVulkan\x64\Release\TestVulkan.iobj
^F:\Dev\Uni\Year4\High_Performance_GFX\TestVulkan\TestVulkan\TestVulkan.vcxproj
F:\Dev\Uni\Year4\High_Performance_GFX\TestVulkan\x64\Release\TestVulkan.ipdb
F:\Dev\Uni\Year4\High_Performance_GFX\TestVulkan\x64\Release\TestVulkan.iobj
^F:\Dev\Uni\Year4\High_Performance_GFX\TestVulkan\TestVulkan\TestVulkan.vcxproj
F:\Dev\Uni\Year4\High_Performance_GFX\TestVulkan\x64\Release\TestVulkan.ipdb
F:\Dev\Uni\Year4\High_Performance_GFX\TestVulkan\x64\Release\TestVulkan.iobj
^F:\Dev\Uni\Year4\High_Performance_GFX\TestVulkan\TestVulkan\TestVulkan.vcxproj
F:\Dev\Uni\Year4\High_Performance_GFX\TestVulkan\x64\Release\TestVulkan.ipdb
F:\Dev\Uni\Year4\High_Performance_GFX\TestVulkan\x64\Release\TestVulkan.iobj
^F:\Dev\Uni\Year4\High_Performance_GFX\TestVulkan\TestVulkan\TestVulkan.vcxproj
F:\Dev\Uni\Year4\High_Performance_GFX\TestVulkan\x64\Release\TestVulkan.ipdb
F:\Dev\Uni\Year4\High_Performance_GFX\TestVulkan\x64\Release\TestVulkan.iobj
^F:\Dev\Uni\Year4\High_Performance_GFX\TestVulkan\TestVulkan\TestVulkan.vcxproj
F:\Dev\Uni\Year4\High_Performance_GFX\TestVulkan\x64\Release\TestVulkan.ipdb
F:\Dev\Uni\Year4\High_Performance_GFX\TestVulkan\x64\Release\TestVulkan.iobj
^F:\Dev\Uni\Year4\High_Performance_GFX\TestVulkan\TestVulkan\TestVulkan.vcxproj
F:\Dev\Uni\Year4\High_Performance_GFX\TestVulkan\x64\Release\TestVulkan.ipdb
F:\Dev\Uni\Year4\High_Performance_GFX\TestVulkan\x64\Release\TestVulkan.iobj
^F:\Dev\Uni\Year4\High_Performance_GFX\TestVulkan\TestVulkan\TestVulkan.vcxproj
F:\Dev\Uni\Year4\High_Performance_GFX\TestVulkan\x64\Release\TestVulkan.ipdb
F:\Dev\Uni\Year4\High_Performance_GFX\TestVulkan\x64\Release\TestVulkan.iobj
^F:\Dev\Uni\Year4\High_Performance_GFX\TestVulkan\TestVulkan\TestVulkan.vcxproj
F:\Dev\Uni\Year4\High_Performance_GFX\TestVulkan\x64\Release\TestVulkan.ipdb
F:\Dev\Uni\Year4\High_Performance_GFX\TestVulkan\x64\Release\TestVulkan.iobj
^F:\Dev\Uni\Year4\High_Performance_GFX\TestVulkan\TestVulkan\TestVulkan.vcxproj
F:\Dev\Uni\Year4\High_Performance_GFX\TestVulkan\x64\Release\TestVulkan.ipdb
F:\Dev\Uni\Year4\High_Performance_GFX\TestVulkan\x64\Release\TestVulkan.iobj
^F:\Dev\Uni\Year4\High_Performance_GFX\TestVulkan\TestVulkan\TestVulkan.vcxproj
F:\Dev\Uni\Year4\High_Performance_GFX\TestVulkan\x64\Release\TestVulkan.ipdb
F:\Dev\Uni\Year4\High_Performance_GFX\TestVulkan\x64\Release\TestVulkan.iobj
^F:\Dev\Uni\Year4\High_Performance_GFX\TestVulkan\TestVulkan\TestVulkan.vcxproj
F:\Dev\Uni\Year4\High_Performance_GFX\TestVulkan\x64\Release\TestVulkan.ipdb
F:\Dev\Uni\Year4\High_Performance_GFX\TestVulkan\x64\Release\TestVulkan.iobj
^F:\Dev\Uni\Year4\High_Performance_GFX\TestVulkan\TestVulkan\TestVulkan.vcxproj
F:\Dev\Uni\Year4\High_Performance_GFX\TestVulkan\x64\Release\TestVulkan.ipdb
F:\Dev\Uni\Year4\High_Performance_GFX\TestVulkan\x64\Release\TestVulkan.iobj
^F:\Dev\Uni\Year4\High_Performance_GFX\TestVulkan\TestVulkan\TestVulkan.vcxproj
F:\Dev\Uni\Year4\High_Performance_GFX\TestVulkan\x64\Release\TestVulkan.ipdb
F:\Dev\Uni\Year4\High_Performance_GFX\TestVulkan\x64\Release\TestVulkan.iobj
^F:\Dev\Uni\Year4\High_Performance_GFX\TestVulkan\TestVulkan\TestVulkan.vcxproj
F:\Dev\Uni\Year4\High_Performance_GFX\TestVulkan\x64\Release\TestVulkan.ipdb
F:\Dev\Uni\Year4\High_Performance_GFX\TestVulkan\x64\Release\TestVulkan.iobj
^F:\Dev\Uni\Year4\High_Performance_GFX\TestVulkan\TestVulkan\TestVulkan.vcxproj
F:\Dev\Uni\Year4\High_Performance_GFX\TestVulkan\x64\Release\TestVulkan.ipdb
F:\Dev\Uni\Year4\High_Performance_GFX\TestVulkan\x64\Release\TestVulkan.iobj
^F:\Dev\Uni\Year4\High_Performance_GFX\TestVulkan\TestVulkan\TestVulkan.vcxproj
F:\Dev\Uni\Year4\High_Performance_GFX\TestVulkan\x64\Release\TestVulkan.ipdb
F:\Dev\Uni\Year4\High_Performance_GFX\TestVulkan\x64\Release\TestVulkan.iobj
^F:\Dev\Uni\Year4\High_Performance_GFX\TestVulkan\TestVulkan\TestVulkan.vcxproj
F:\Dev\Uni\Year4\High_Performance_GFX\TestVulkan\x64\Release\TestVulkan.ipdb
F:\Dev\Uni\Year4\High_Performance_GFX\TestVulkan\x64\Release\TestVulkan.iobj
^F:\Dev\Uni\Year4\High_Performance_GFX\TestVulkan\TestVulkan\TestVulkan.vcxproj
F:\Dev\Uni\Year4\High_Performance_GFX\TestVulkan\x64\Release\TestVulkan.ipdb
F:\Dev\Uni\Year4\High_Performance_GFX\TestVulkan\x64\Release\TestVulkan.iobj
^F:\Dev\Uni\Year4\High_Performance_GFX\TestVulkan\TestVulkan\TestVulkan.vcxproj
F:\Dev\Uni\Year4\High_Performance_GFX\TestVulkan\x64\Release\TestVulkan.ipdb
F:\Dev\Uni\Year4\High_Performance_GFX\TestVulkan\x64\Release\TestVulkan.iobj
^F:\Dev\Uni\Year4\High_Performance_GFX\TestVulkan\TestVulkan\TestVulkan.vcxproj
F:\Dev\Uni\Year4\High_Performance_GFX\TestVulkan\x64\Release\TestVulkan.ipdb
F:\Dev\Uni\Year4\High_Performance_GFX\TestVulkan\x64\Release\TestVulkan.iobj
^F:\Dev\Uni\Year4\High_Performance_GFX\TestVulkan\TestVulkan\TestVulkan.vcxproj
F:\Dev\Uni\Year4\High_Performance_GFX\TestVulkan\x64\Release\TestVulkan.ipdb
F:\Dev\Uni\Year4\High_Performance_GFX\TestVulkan\x64\Release\TestVulkan.iobj
^F:\Dev\Uni\Year4\High_Performance_GFX\TestVulkan\TestVulkan\TestVulkan.vcxproj
F:\Dev\Uni\Year4\High_Performance_GFX\TestVulkan\x64\Release\TestVulkan.ipdb
F:\Dev\Uni\Year4\High_Performance_GFX\TestVulkan\x64\Release\TestVulkan.iobj
^F:\Dev\Uni\Year4\High_Performance_GFX\TestVulkan\TestVulkan\TestVulkan.vcxproj
F:\Dev\Uni\Year4\High_Performance_GFX\TestVulkan\x64\Release\TestVulkan.ipdb
F:\Dev\Uni\Year4\High_Performance_GFX\TestVulkan\x64\Release\TestVulkan.iobj
^F:\Dev\Uni\Year4\High_Performance_GFX\TestVulkan\TestVulkan\TestVulkan.vcxproj
F:\Dev\Uni\Year4\High_Performance_GFX\TestVulkan\x64\Release\TestVulkan.ipdb
F:\Dev\Uni\Year4\High_Performance_GFX\TestVulkan\x64\Release\TestVulkan.iobj
^F:\Dev\Uni\Year4\High_Performance_GFX\TestVulkan\TestVulkan\TestVulkan.vcxproj
F:\Dev\Uni\Year4\High_Performance_GFX\TestVulkan\x64\Release\TestVulkan.ipdb
F:\Dev\Uni\Year4\High_Performance_GFX\TestVulkan\x64\Release\TestVulkan.iobj
^F:\Dev\Uni\Year4\High_Performance_GFX\TestVulkan\TestVulkan\TestVulkan.vcxproj
F:\Dev\Uni\Year4\High_Performance_GFX\TestVulkan\x64\Release\TestVulkan.ipdb
F:\Dev\Uni\Year4\High_Performance_GFX\TestVulkan\x64\Release\TestVulkan.iobj
^F:\Dev\Uni\Year4\High_Performance_GFX\TestVulkan\TestVulkan\TestVulkan.vcxproj
F:\Dev\Uni\Year4\High_Performance_GFX\TestVulkan\x64\Release\TestVulkan.ipdb
F:\Dev\Uni\Year4\High_Performance_GFX\TestVulkan\x64\Release\TestVulkan.iobj
^F:\Dev\Uni\Year4\High_Performance_GFX\TestVulkan\TestVulkan\TestVulkan.vcxproj
F:\Dev\Uni\Year4\High_Performance_GFX\TestVulkan\x64\Release\TestVulkan.ipdb
F:\Dev\Uni\Year4\High_Performance_GFX\TestVulkan\x64\Release\TestVulkan.iobj
^F:\Dev\Uni\Year4\High_Performance_GFX\TestVulkan\TestVulkan\TestVulkan.vcxproj
F:\Dev\Uni\Year4\High_Performance_GFX\TestVulkan\x64\Release\TestVulkan.ipdb
F:\Dev\Uni\Year4\High_Performance_GFX\TestVulkan\x64\Release\TestVulkan.iobj
^F:\Dev\Uni\Year4\High_Performance_GFX\TestVulkan\TestVulkan\TestVulkan.vcxproj
F:\Dev\Uni\Year4\High_Performance_GFX\TestVulkan\x64\Release\TestVulkan.ipdb
F:\Dev\Uni\Year4\High_Performance_GFX\TestVulkan\x64\Release\TestVulkan.iobj
^F:\Dev\Uni\Year4\High_Performance_GFX\TestVulkan\TestVulkan\TestVulkan.vcxproj
F:\Dev\Uni\Year4\High_Performance_GFX\TestVulkan\x64\Release\TestVulkan.ipdb
F:\Dev\Uni\Year4\High_Performance_GFX\TestVulkan\x64\Release\TestVulkan.iobj
^F:\Dev\Uni\Year4\High_Performance_GFX\TestVulkan\TestVulkan\TestVulkan.vcxproj
F:\Dev\Uni\Year4\High_Performance_GFX\TestVulkan\x64\Release\TestVulkan.ipdb
F:\Dev\Uni\Year4\High_Performance_GFX\TestVulkan\x64\Release\TestVulkan.iobj
^F:\Dev\Uni\Year4\High_Performance_GFX\TestVulkan\TestVulkan\TestVulkan.vcxproj
F:\Dev\Uni\Year4\High_Performance_GFX\TestVulkan\x64\Release\TestVulkan.ipdb
F:\Dev\Uni\Year4\High_Performance_GFX\TestVulkan\x64\Release\TestVulkan.iobj
^F:\Dev\Uni\Year4\High_Performance_GFX\TestVulkan\TestVulkan\TestVulkan.vcxproj
F:\Dev\Uni\Year4\High_Performance_GFX\TestVulkan\x64\Release\TestVulkan.ipdb
F:\Dev\Uni\Year4\High_Performance_GFX\TestVulkan\x64\Release\TestVulkan.iobj
^F:\Dev\Uni\Year4\High_Performance_GFX\TestVulkan\TestVulkan\TestVulkan.vcxproj
F:\Dev\Uni\Year4\High_Performance_GFX\TestVulkan\x64\Release\TestVulkan.ipdb
F:\Dev\Uni\Year4\High_Performance_GFX\TestVulkan\x64\Release\TestVulkan.iobj
^F:\Dev\Uni\Year4\High_Performance_GFX\TestVulkan\TestVulkan\TestVulkan.vcxproj
F:\Dev\Uni\Year4\High_Performance_GFX\TestVulkan\x64\Release\TestVulkan.ipdb
F:\Dev\Uni\Year4\High_Performance_GFX\TestVulkan\x64\Release\TestVulkan.iobj
^F:\Dev\Uni\Year4\High_Performance_GFX\TestVulkan\TestVulkan\TestVulkan.vcxproj
F:\Dev\Uni\Year4\High_Performance_GFX\TestVulkan\x64\Release\TestVulkan.ipdb
F:\Dev\Uni\Year4\High_Performance_GFX\TestVulkan\x64\Release\TestVulkan.iobj
^F:\Dev\Uni\Year4\High_Performance_GFX\TestVulkan\TestVulkan\TestVulkan.vcxproj
F:\Dev\Uni\Year4\High_Performance_GFX\TestVulkan\x64\Release\TestVulkan.ipdb
F:\Dev\Uni\Year4\High_Performance_GFX\TestVulkan\x64\Release\TestVulkan.iobj
^F:\Dev\Uni\Year4\High_Performance_GFX\TestVulkan\TestVulkan\TestVulkan.vcxproj
F:\Dev\Uni\Year4\High_Performance_GFX\TestVulkan\x64\Release\TestVulkan.ipdb
F:\Dev\Uni\Year4\High_Performance_GFX\TestVulkan\x64\Release\TestVulkan.iobj
^F:\Dev\Uni\Year4\High_Performance_GFX\TestVulkan\TestVulkan\TestVulkan.vcxproj
F:\Dev\Uni\Year4\High_Performance_GFX\TestVulkan\x64\Release\TestVulkan.ipdb
F:\Dev\Uni\Year4\High_Performance_GFX\TestVulkan\x64\Release\TestVulkan.iobj
^F:\Dev\Uni\Year4\High_Performance_GFX\TestVulkan\TestVulkan\TestVulkan.vcxproj
F:\Dev\Uni\Year4\High_Performance_GFX\TestVulkan\x64\Release\TestVulkan.ipdb
F:\Dev\Uni\Year4\High_Performance_GFX\TestVulkan\x64\Release\TestVulkan.iobj
^F:\Dev\Uni\Year4\High_Performance_GFX\TestVulkan\TestVulkan\TestVulkan.vcxproj
F:\Dev\Uni\Year4\High_Performance_GFX\TestVulkan\x64\Release\TestVulkan.ipdb
F:\Dev\Uni\Year4\High_Performance_GFX\TestVulkan\x64\Release\TestVulkan.iobj
^F:\Dev\Uni\Year4\High_Performance_GFX\TestVulkan\TestVulkan\TestVulkan.vcxproj
F:\Dev\Uni\Year4\High_Performance_GFX\TestVulkan\x64\Release\TestVulkan.ipdb
F:\Dev\Uni\Year4\High_Performance_GFX\TestVulkan\x64\Release\TestVulkan.iobj
^F:\Dev\Uni\Year4\High_Performance_GFX\TestVulkan\TestVulkan\TestVulkan.vcxproj
F:\Dev\Uni\Year4\High_Performance_GFX\TestVulkan\x64\Release\TestVulkan.ipdb
F:\Dev\Uni\Year4\High_Performance_GFX\TestVulkan\x64\Release\TestVulkan.iobj
^F:\Dev\Uni\Year4\High_Performance_GFX\TestVulkan\TestVulkan\TestVulkan.vcxproj
F:\Dev\Uni\Year4\High_Performance_GFX\TestVulkan\x64\Release\TestVulkan.ipdb
F:\Dev\Uni\Year4\High_Performance_GFX\TestVulkan\x64\Release\TestVulkan.iobj
^F:\Dev\Uni\Year4\High_Performance_GFX\TestVulkan\TestVulkan\TestVulkan.vcxproj
F:\Dev\Uni\Year4\High_Performance_GFX\TestVulkan\x64\Release\TestVulkan.ipdb
F:\Dev\Uni\Year4\High_Performance_GFX\TestVulkan\x64\Release\TestVulkan.iobj
^F:\Dev\Uni\Year4\High_Performance_GFX\TestVulkan\TestVulkan\TestVulkan.vcxproj
F:\Dev\Uni\Year4\High_Performance_GFX\TestVulkan\x64\Release\TestVulkan.ipdb
F:\Dev\Uni\Year4\High_Performance_GFX\TestVulkan\x64\Release\TestVulkan.iobj
^F:\Dev\Uni\Year4\High_Performance_GFX\TestVulkan\TestVulkan\TestVulkan.vcxproj
F:\Dev\Uni\Year4\High_Performance_GFX\TestVulkan\x64\Release\TestVulkan.ipdb
F:\Dev\Uni\Year4\High_Performance_GFX\TestVulkan\x64\Release\TestVulkan.iobj
^F:\Dev\Uni\Year4\High_Performance_GFX\TestVulkan\TestVulkan\TestVulkan.vcxproj
F:\Dev\Uni\Year4\High_Performance_GFX\TestVulkan\x64\Release\TestVulkan.ipdb
F:\Dev\Uni\Year4\High_Performance_GFX\TestVulkan\x64\Release\TestVulkan.iobj
^F:\Dev\Uni\Year4\High_Performance_GFX\TestVulkan\TestVulkan\TestVulkan.vcxproj
F:\Dev\Uni\Year4\High_Performance_GFX\TestVulkan\x64\Release\TestVulkan.ipdb
F:\Dev\Uni\Year4\High_Performance_GFX\TestVulkan\x64\Release\TestVulkan.iobj
^F:\Dev\Uni\Year4\High_Performance_GFX\TestVulkan\TestVulkan\TestVulkan.vcxproj
F:\Dev\Uni\Year4\High_Performance_GFX\TestVulkan\x64\Release\TestVulkan.ipdb
F:\Dev\Uni\Year4\High_Performance_GFX\TestVulkan\x64\Release\TestVulkan.iobj
^F:\Dev\Uni\Year4\High_Performance_GFX\TestVulkan\TestVulkan\TestVulkan.vcxproj
F:\Dev\Uni\Year4\High_Performance_GFX\TestVulkan\x64\Release\TestVulkan.ipdb
F:\Dev\Uni\Year4\High_Performance_GFX\TestVulkan\x64\Release\TestVulkan.iobj
^F:\Dev\Uni\Year4\High_Performance_GFX\TestVulkan\TestVulkan\TestVulkan.vcxproj
F:\Dev\Uni\Year4\High_Performance_GFX\TestVulkan\x64\Release\TestVulkan.ipdb
F:\Dev\Uni\Year4\High_Performance_GFX\TestVulkan\x64\Release\TestVulkan.iobj
^F:\Dev\Uni\Year4\High_Performance_GFX\TestVulkan\TestVulkan\TestVulkan.vcxproj
F:\Dev\Uni\Year4\High_Performance_GFX\TestVulkan\x64\Release\TestVulkan.ipdb
F:\Dev\Uni\Year4\High_Performance_GFX\TestVulkan\x64\Release\TestVulkan.iobj
^F:\Dev\Uni\Year4\High_Performance_GFX\TestVulkan\TestVulkan\TestVulkan.vcxproj
F:\Dev\Uni\Year4\High_Performance_GFX\TestVulkan\x64\Release\TestVulkan.ipdb
F:\Dev\Uni\Year4\High_Performance_GFX\TestVulkan\x64\Release\TestVulkan.iobj
^F:\Dev\Uni\Year4\High_Performance_GFX\TestVulkan\TestVulkan\TestVulkan.vcxproj
F:\Dev\Uni\Year4\High_Performance_GFX\TestVulkan\x64\Release\TestVulkan.ipdb
F:\Dev\Uni\Year4\High_Performance_GFX\TestVulkan\x64\Release\TestVulkan.iobj
^F:\Dev\Uni\Year4\High_Performance_GFX\TestVulkan\TestVulkan\TestVulkan.vcxproj
F:\Dev\Uni\Year4\High_Performance_GFX\TestVulkan\x64\Release\TestVulkan.ipdb
F:\Dev\Uni\Year4\High_Performance_GFX\TestVulkan\x64\Release\TestVulkan.iobj
^F:\Dev\Uni\Year4\High_Performance_GFX\TestVulkan\TestVulkan\TestVulkan.vcxproj
F:\Dev\Uni\Year4\High_Performance_GFX\TestVulkan\x64\Release\TestVulkan.ipdb
F:\Dev\Uni\Year4\High_Performance_GFX\TestVulkan\x64\Release\TestVulkan.iobj
^F:\Dev\Uni\Year4\High_Performance_GFX\TestVulkan\TestVulkan\TestVulkan.vcxproj
F:\Dev\Uni\Year4\High_Performance_GFX\TestVulkan\x64\Release\TestVulkan.ipdb
F:\Dev\Uni\Year4\High_Performance_GFX\TestVulkan\x64\Release\TestVulkan.iobj
^F:\Dev\Uni\Year4\High_Performance_GFX\TestVulkan\TestVulkan\TestVulkan.vcxproj
F:\Dev\Uni\Year4\High_Performance_GFX\TestVulkan\x64\Release\TestVulkan.ipdb
F:\Dev\Uni\Year4\High_Performance_GFX\TestVulkan\x64\Release\TestVulkan.iobj
^F:\Dev\Uni\Year4\High_Performance_GFX\TestVulkan\TestVulkan\TestVulkan.vcxproj
F:\Dev\Uni\Year4\High_Performance_GFX\TestVulkan\x64\Release\TestVulkan.ipdb
F:\Dev\Uni\Year4\High_Performance_GFX\TestVulkan\x64\Release\TestVulkan.iobj
^F:\Dev\Uni\Year4\High_Performance_GFX\TestVulkan\TestVulkan\TestVulkan.vcxproj
F:\Dev\Uni\Year4\High_Performance_GFX\TestVulkan\x64\Release\TestVulkan.ipdb
F:\Dev\Uni\Year4\High_Performance_GFX\TestVulkan\x64\Release\TestVulkan.iobj
^F:\Dev\Uni\Year4\High_Performance_GFX\TestVulkan\TestVulkan\TestVulkan.vcxproj
F:\Dev\Uni\Year4\High_Performance_GFX\TestVulkan\x64\Release\TestVulkan.ipdb
F:\Dev\Uni\Year4\High_Performance_GFX\TestVulkan\x64\Release\TestVulkan.iobj
^F:\Dev\Uni\Year4\High_Performance_GFX\TestVulkan\TestVulkan\TestVulkan.vcxproj
F:\Dev\Uni\Year4\High_Performance_GFX\TestVulkan\x64\Release\TestVulkan.ipdb
F:\Dev\Uni\Year4\High_Performance_GFX\TestVulkan\x64\Release\TestVulkan.iobj
^F:\Dev\Uni\Year4\High_Performance_GFX\TestVulkan\TestVulkan\TestVulkan.vcxproj
F:\Dev\Uni\Year4\High_Performance_GFX\TestVulkan\x64\Release\TestVulkan.ipdb
F:\Dev\Uni\Year4\High_Performance_GFX\TestVulkan\x64\Release\TestVulkan.iobj
^F:\Dev\Uni\Year4\High_Performance_GFX\TestVulkan\TestVulkan\TestVulkan.vcxproj
F:\Dev\Uni\Year4\High_Performance_GFX\TestVulkan\x64\Release\TestVulkan.ipdb
F:\Dev\Uni\Year4\High_Performance_GFX\TestVulkan\x64\Release\TestVulkan.iobj
^F:\Dev\Uni\Year4\High_Performance_GFX\TestVulkan\TestVulkan\TestVulkan.vcxproj
F:\Dev\Uni\Year4\High_Performance_GFX\TestVulkan\x64\Release\TestVulkan.ipdb
F:\Dev\Uni\Year4\High_Performance_GFX\TestVulkan\x64\Release\TestVulkan.iobj
^F:\Dev\Uni\Year4\High_Performance_GFX\TestVulkan\TestVulkan\TestVulkan.vcxproj
F:\Dev\Uni\Year4\High_Performance_GFX\TestVulkan\x64\Release\TestVulkan.ipdb
F:\Dev\Uni\Year4\High_Performance_GFX\TestVulkan\x64\Release\TestVulkan.iobj
^F:\Dev\Uni\Year4\High_Performance_GFX\TestVulkan\TestVulkan\TestVulkan.vcxproj
F:\Dev\Uni\Year4\High_Performance_GFX\TestVulkan\x64\Release\TestVulkan.ipdb
F:\Dev\Uni\Year4\High_Performance_GFX\TestVulkan\x64\Release\TestVulkan.iobj
^F:\Dev\Uni\Year4\High_Performance_GFX\TestVulkan\TestVulkan\TestVulkan.vcxproj
F:\Dev\Uni\Year4\High_Performance_GFX\TestVulkan\x64\Release\TestVulkan.ipdb
F:\Dev\Uni\Year4\High_Performance_GFX\TestVulkan\x64\Release\TestVulkan.iobj
^F:\Dev\Uni\Year4\High_Performance_GFX\TestVulkan\TestVulkan\TestVulkan.vcxproj
F:\Dev\Uni\Year4\High_Performance_GFX\TestVulkan\x64\Release\TestVulkan.ipdb
F:\Dev\Uni\Year4\High_Performance_GFX\TestVulkan\x64\Release\TestVulkan.iobj
^F:\Dev\Uni\Year4\High_Performance_GFX\TestVulkan\TestVulkan\TestVulkan.vcxproj
F:\Dev\Uni\Year4\High_Performance_GFX\TestVulkan\x64\Release\TestVulkan.ipdb
F:\Dev\Uni\Year4\High_Performance_GFX\TestVulkan\x64\Release\TestVulkan.iobj
^F:\Dev\Uni\Year4\High_Performance_GFX\TestVulkan\TestVulkan\TestVulkan.vcxproj
F:\Dev\Uni\Year4\High_Performance_GFX\TestVulkan\x64\Release\TestVulkan.ipdb
F:\Dev\Uni\Year4\High_Performance_GFX\TestVulkan\x64\Release\TestVulkan.iobj
^F:\Dev\Uni\Year4\High_Performance_GFX\TestVulkan\TestVulkan\TestVulkan.vcxproj
F:\Dev\Uni\Year4\High_Performance_GFX\TestVulkan\x64\Release\TestVulkan.ipdb
F:\Dev\Uni\Year4\High_Performance_GFX\TestVulkan\x64\Release\TestVulkan.iobj
^F:\Dev\Uni\Year4\High_Performance_GFX\TestVulkan\TestVulkan\TestVulkan.vcxproj
F:\Dev\Uni\Year4\High_Performance_GFX\TestVulkan\x64\Release\TestVulkan.ipdb
F:\Dev\Uni\Year4\High_Performance_GFX\TestVulkan\x64\Release\TestVulkan.iobj
^F:\Dev\Uni\Year4\High_Performance_GFX\TestVulkan\TestVulkan\TestVulkan.vcxproj
F:\Dev\Uni\Year4\High_Performance_GFX\TestVulkan\x64\Release\TestVulkan.ipdb
F:\Dev\Uni\Year4\High_Performance_GFX\TestVulkan\x64\Release\TestVulkan.iobj
^F:\Dev\Uni\Year4\High_Performance_GFX\TestVulkan\TestVulkan\TestVulkan.vcxproj
F:\Dev\Uni\Year4\High_Performance_GFX\TestVulkan\x64\Release\TestVulkan.ipdb
F:\Dev\Uni\Year4\High_Performance_GFX\TestVulkan\x64\Release\TestVulkan.iobj
^F:\Dev\Uni\Year4\High_Performance_GFX\TestVulkan\TestVulkan\TestVulkan.vcxproj
F:\Dev\Uni\Year4\High_Performance_GFX\TestVulkan\x64\Release\TestVulkan.ipdb
F:\Dev\Uni\Year4\High_Performance_GFX\TestVulkan\x64\Release\TestVulkan.iobj
^F:\Dev\Uni\Year4\High_Performance_GFX\TestVulkan\TestVulkan\TestVulkan.vcxproj
F:\Dev\Uni\Year4\High_Performance_GFX\TestVulkan\x64\Release\TestVulkan.ipdb
F:\Dev\Uni\Year4\High_Performance_GFX\TestVulkan\x64\Release\TestVulkan.iobj
^F:\Dev\Uni\Year4\High_Performance_GFX\TestVulkan\TestVulkan\TestVulkan.vcxproj
F:\Dev\Uni\Year4\High_Performance_GFX\TestVulkan\x64\Release\TestVulkan.ipdb
F:\Dev\Uni\Year4\High_Performance_GFX\TestVulkan\x64\Release\TestVulkan.iobj
^F:\Dev\Uni\Year4\High_Performance_GFX\TestVulkan\TestVulkan\TestVulkan.vcxproj
F:\Dev\Uni\Year4\High_Performance_GFX\TestVulkan\x64\Release\TestVulkan.ipdb
F:\Dev\Uni\Year4\High_Performance_GFX\TestVulkan\x64\Release\TestVulkan.iobj
^F:\Dev\Uni\Year4\High_Performance_GFX\TestVulkan\TestVulkan\TestVulkan.vcxproj
F:\Dev\Uni\Year4\High_Performance_GFX\TestVulkan\x64\Release\TestVulkan.ipdb
F:\Dev\Uni\Year4\High_Performance_GFX\TestVulkan\x64\Release\TestVulkan.iobj
^F:\Dev\Uni\Year4\High_Performance_GFX\TestVulkan\TestVulkan\TestVulkan.vcxproj
F:\Dev\Uni\Year4\High_Performance_GFX\TestVulkan\x64\Release\TestVulkan.ipdb
F:\Dev\Uni\Year4\High_Performance_GFX\TestVulkan\x64\Release\TestVulkan.iobj
^F:\Dev\Uni\Year4\High_Performance_GFX\TestVulkan\TestVulkan\TestVulkan.vcxproj
F:\Dev\Uni\Year4\High_Performance_GFX\TestVulkan\x64\Release\TestVulkan.ipdb
F:\Dev\Uni\Year4\High_Performance_GFX\TestVulkan\x64\Release\TestVulkan.iobj
^F:\Dev\Uni\Year4\High_Performance_GFX\TestVulkan\TestVulkan\TestVulkan.vcxproj
F:\Dev\Uni\Year4\High_Performance_GFX\TestVulkan\x64\Release\TestVulkan.ipdb
F:\Dev\Uni\Year4\High_Performance_GFX\TestVulkan\x64\Release\TestVulkan.iobj
^F:\Dev\Uni\Year4\High_Performance_GFX\TestVulkan\TestVulkan\TestVulkan.vcxproj
F:\Dev\Uni\Year4\High_Performance_GFX\TestVulkan\x64\Release\TestVulkan.ipdb
F:\Dev\Uni\Year4\High_Performance_GFX\TestVulkan\x64\Release\TestVulkan.iobj
^F:\Dev\Uni\Year4\High_Performance_GFX\TestVulkan\TestVulkan\TestVulkan.vcxproj
F:\Dev\Uni\Year4\High_Performance_GFX\TestVulkan\x64\Release\TestVulkan.ipdb
F:\Dev\Uni\Year4\High_Performance_GFX\TestVulkan\x64\Release\TestVulkan.iobj
^F:\Dev\Uni\Year4\High_Performance_GFX\TestVulkan\TestVulkan\TestVulkan.vcxproj
F:\Dev\Uni\Year4\High_Performance_GFX\TestVulkan\x64\Release\TestVulkan.ipdb
F:\Dev\Uni\Year4\High_Performance_GFX\TestVulkan\x64\Release\TestVulkan.iobj
^F:\Dev\Uni\Year4\High_Performance_GFX\TestVulkan\TestVulkan\TestVulkan.vcxproj
F:\Dev\Uni\Year4\High_Performance_GFX\TestVulkan\x64\Release\TestVulkan.ipdb
F:\Dev\Uni\Year4\High_Performance_GFX\TestVulkan\x64\Release\TestVulkan.iobj
^F:\Dev\Uni\Year4\High_Performance_GFX\TestVulkan\TestVulkan\TestVulkan.vcxproj
F:\Dev\Uni\Year4\High_Performance_GFX\TestVulkan\x64\Release\TestVulkan.ipdb
F:\Dev\Uni\Year4\High_Performance_GFX\TestVulkan\x64\Release\TestVulkan.iobj
^F:\Dev\Uni\Year4\High_Performance_GFX\TestVulkan\TestVulkan\TestVulkan.vcxproj
F:\Dev\Uni\Year4\High_Performance_GFX\TestVulkan\x64\Release\TestVulkan.ipdb
F:\Dev\Uni\Year4\High_Performance_GFX\TestVulkan\x64\Release\TestVulkan.iobj
