^F:\DEV\UNI\YEAR4\HIGH_PERFORMANCE_GFX\TESTVULKAN\TESTVULKAN\A1VULKANAPP.CPP|F:\DEV\UNI\YEAR4\HIGH_PERFORMANCE_GFX\TESTVULKAN\TESTVULKAN\IMGUI\IMGUI.CPP|F:\DEV\UNI\YEAR4\HIGH_PERFORMANCE_GFX\TESTVULKAN\TESTVULKAN\IMGUI\IMGUI_DEMO.CPP|F:\DEV\UNI\YEAR4\HIGH_PERFORMANCE_GFX\TESTVULKAN\TESTVULKAN\IMGUI\IMGUI_DRAW.CPP|F:\DEV\UNI\YEAR4\HIGH_PERFORMANCE_GFX\TESTVULKAN\TESTVULKAN\IMGUI\IMGUI_IMPL_GLFW.CPP|F:\DEV\UNI\YEAR4\HIGH_PERFORMANCE_GFX\TESTVULKAN\TESTVULKAN\IMGUI\IMGUI_IMPL_VULKAN.CPP|F:\DEV\UNI\YEAR4\HIGH_PERFORMANCE_GFX\TESTVULKAN\TESTVULKAN\IMGUI\IMGUI_TABLES.CPP|F:\DEV\UNI\YEAR4\HIGH_PERFORMANCE_GFX\TESTVULKAN\TESTVULKAN\IMGUI\IMGUI_WIDGETS.CPP
F:\DEV\UNI\YEAR4\HIGH_PERFORMANCE_GFX\TESTVULKAN\TESTVULKAN\X64\RELEASE\VC142.PDB
F:\DEV\UNI\YEAR4\HIGH_PERFORMANCE_GFX\TESTVULKAN\TESTVULKAN\X64\RELEASE\IMGUI_WIDGETS.OBJ
F:\DEV\UNI\YEAR4\HIGH_PERFORMANCE_GFX\TESTVULKAN\TESTVULKAN\X64\RELEASE\IMGUI_TABLES.OBJ
F:\DEV\UNI\YEAR4\HIGH_PERFORMANCE_GFX\TESTVULKAN\TESTVULKAN\X64\RELEASE\IMGUI_IMPL_VULKAN.OBJ
F:\DEV\UNI\YEAR4\HIGH_PERFORMANCE_GFX\TESTVULKAN\TESTVULKAN\X64\RELEASE\IMGUI_IMPL_GLFW.OBJ
F:\DEV\UNI\YEAR4\HIGH_PERFORMANCE_GFX\TESTVULKAN\TESTVULKAN\X64\RELEASE\IMGUI_DRAW.OBJ
F:\DEV\UNI\YEAR4\HIGH_PERFORMANCE_GFX\TESTVULKAN\TESTVULKAN\X64\RELEASE\IMGUI_DEMO.OBJ
F:\DEV\UNI\YEAR4\HIGH_PERFORMANCE_GFX\TESTVULKAN\TESTVULKAN\X64\RELEASE\IMGUI.OBJ
F:\DEV\UNI\YEAR4\HIGH_PERFORMANCE_GFX\TESTVULKAN\TESTVULKAN\X64\RELEASE\A1VULKANAPP.OBJ
^F:\DEV\UNI\YEAR4\HIGH_PERFORMANCE_GFX\TESTVULKAN\TESTVULKAN\IMGUI\IMGUI.CPP
F:\DEV\UNI\YEAR4\HIGH_PERFORMANCE_GFX\TESTVULKAN\TESTVULKAN\X64\RELEASE\VC142.PDB
^F:\DEV\UNI\YEAR4\HIGH_PERFORMANCE_GFX\TESTVULKAN\TESTVULKAN\IMGUI\IMGUI_DEMO.CPP
F:\DEV\UNI\YEAR4\HIGH_PERFORMANCE_GFX\TESTVULKAN\TESTVULKAN\X64\RELEASE\VC142.PDB
^F:\DEV\UNI\YEAR4\HIGH_PERFORMANCE_GFX\TESTVULKAN\TESTVULKAN\IMGUI\IMGUI_DRAW.CPP
F:\DEV\UNI\YEAR4\HIGH_PERFORMANCE_GFX\TESTVULKAN\TESTVULKAN\X64\RELEASE\VC142.PDB
^F:\DEV\UNI\YEAR4\HIGH_PERFORMANCE_GFX\TESTVULKAN\TESTVULKAN\IMGUI\IMGUI_IMPL_GLFW.CPP
F:\DEV\UNI\YEAR4\HIGH_PERFORMANCE_GFX\TESTVULKAN\TESTVULKAN\X64\RELEASE\VC142.PDB
^F:\DEV\UNI\YEAR4\HIGH_PERFORMANCE_GFX\TESTVULKAN\TESTVULKAN\IMGUI\IMGUI_IMPL_VULKAN.CPP
F:\DEV\UNI\YEAR4\HIGH_PERFORMANCE_GFX\TESTVULKAN\TESTVULKAN\X64\RELEASE\VC142.PDB
^F:\DEV\UNI\YEAR4\HIGH_PERFORMANCE_GFX\TESTVULKAN\TESTVULKAN\IMGUI\IMGUI_TABLES.CPP
F:\DEV\UNI\YEAR4\HIGH_PERFORMANCE_GFX\TESTVULKAN\TESTVULKAN\X64\RELEASE\VC142.PDB
^F:\DEV\UNI\YEAR4\HIGH_PERFORMANCE_GFX\TESTVULKAN\TESTVULKAN\IMGUI\IMGUI_WIDGETS.CPP
F:\DEV\UNI\YEAR4\HIGH_PERFORMANCE_GFX\TESTVULKAN\TESTVULKAN\X64\RELEASE\VC142.PDB
^F:\DEV\UNI\YEAR4\HIGH_PERFORMANCE_GFX\TESTVULKAN\TESTVULKAN\A1VULKANAPP.CPP
F:\DEV\UNI\YEAR4\HIGH_PERFORMANCE_GFX\TESTVULKAN\TESTVULKAN\X64\RELEASE\VC142.PDB
F:\DEV\UNI\YEAR4\HIGH_PERFORMANCE_GFX\TESTVULKAN\TESTVULKAN\X64\RELEASE\A1VULKANAPP.OBJ
