^F:\DEV\UNI\YEAR4\HIGH_PERFORMANCE_GFX\TESTVULKAN\TESTVULKAN\X64\RELEASE\A1VULKANAPP.OBJ|F:\DEV\UNI\YEAR4\HIGH_PERFORMANCE_GFX\TESTVULKAN\TESTVULKAN\X64\RELEASE\IMGUI.OBJ|F:\DEV\UNI\YEAR4\HIGH_PERFORMANCE_GFX\TESTVULKAN\TESTVULKAN\X64\RELEASE\IMGUI_DEMO.OBJ|F:\DEV\UNI\YEAR4\HIGH_PERFORMANCE_GFX\TESTVULKAN\TESTVULKAN\X64\RELEASE\IMGUI_DRAW.OBJ|F:\DEV\UNI\YEAR4\HIGH_PERFORMANCE_GFX\TESTVULKAN\TESTVULKAN\X64\RELEASE\IMGUI_IMPL_GLFW.OBJ|F:\DEV\UNI\YEAR4\HIGH_PERFORMANCE_GFX\TESTVULKAN\TESTVULKAN\X64\RELEASE\IMGUI_IMPL_VULKAN.OBJ|F:\DEV\UNI\YEAR4\HIGH_PERFORMANCE_GFX\TESTVULKAN\TESTVULKAN\X64\RELEASE\IMGUI_TABLES.OBJ|F:\DEV\UNI\YEAR4\HIGH_PERFORMANCE_GFX\TESTVULKAN\TESTVULKAN\X64\RELEASE\IMGUI_WIDGETS.OBJ
F:\DEV\UNI\YEAR4\HIGH_PERFORMANCE_GFX\TESTVULKAN\X64\RELEASE\TESTVULKAN.EXE
F:\DEV\UNI\YEAR4\HIGH_PERFORMANCE_GFX\TESTVULKAN\X64\RELEASE\TESTVULKAN.PDB
